APproximated Exhaustive Search for GLM • APES
…
#>           apes_model_7 apes_model_8 apes_model_9 apes_model_10 apes_model_11
#> intercept  -0.02537646  -0.03499840 -0.035311695  -0.033665114   -0.03719786
#> X1          0.90212184   0.90188902  0.903462199   0.897326247    0.89767827
#> X2         -1.26346112  -1.25336923 -1.255116974  -1.267791328   -1.28695784
#> X3          0.00000000   0.08668873  0.085645946   0.078934792    0.09639943
#> X4          0.23862872   0.24372960  0.244554920   0.235973676    0.24004701
#> X5          0.00000000   0.00000000  0.000000000   0.000000000   -0.09331309
#> X6         -0.52805565  -0.53206755 -0.531958021  -0.522720700   -0.51654913
#> X7          0.00000000   0.00000000 -0.007390793  -0.007214945   -0.01401226
#> X8          0.00000000   0.00000000  0.000000000   0.072018505    0.08240456
#> X9         -0.35429359  -0.34056237 -0.340276500  -0.334880672   -0.33863067
#> X10        -0.35526480  -0.36409743 -0.365341478  -0.348944738   -0.35094527
#> 
#> $apes_mle_beta_binary
#> # A tibble: 110 x 3
#>    variables model_name   fitted_beta
#>    <fct>     <fct>        <lgl>      
#>  1 intercept apes_model_2 TRUE       
#>  2 X1        apes_model_2 FALSE      
#>  3 X2        apes_model_2 TRUE       
#>  4 X3        apes_model_2 FALSE      
#>  5 X4        apes_model_2 FALSE      
#>  6 X5        apes_model_2 FALSE      
#>  7 X6        apes_model_2 FALSE      
#>  8 X7        apes_model_2 FALSE      
#>  9 X8        apes_model_2 FALSE      
#> 10 X9        apes_model_2 FALSE      
#> # … with 100 more rows
…
#>           aic_weight_coef bic_weight_coef
#> intercept   -0.0280111380   -4.975428e-02
#> X1           0.9143184235    8.989310e-01
#> X2          -1.1764903378   -1.132568e+00
#> X3           0.0043666618    1.530326e-05
#> X4           0.0322490168    4.025344e-04
#> X5          -0.0001696129   -1.670955e-08
#> X6          -0.3526317102   -1.373989e-01
#> X7          -0.0001463119   -1.319753e-07
#> X8           0.0004751834    1.326869e-07
#> X9          -0.1649975503   -2.058866e-02
#> X10         -0.0948133452   -3.703995e-03
#> 
#> $response_tibble
#> # A tibble: 100 x 4
#>    obs_num     y fitted_values linear_y
#>    <chr>   <dbl>         <dbl>    <dbl>
#>  1 obs1        0        0.820     -4.05
#>  2 obs2        0        0.285     -2.32
#>  3 obs3        1        0.389      2.12
#>  4 obs4        1        0.233      3.10
#>  5 obs5        1        0.514      2.00
#>  6 obs6        0        0.331     -2.20
#>  7 obs7        0        0.110     -3.21
#>  8 obs8        1        0.875      3.09
#>  9 obs9        0        0.0107    -5.54
#> 10 obs10       0        0.0383    -4.26
#> # … with 90 more rows
…
