Generic plotting function for class boot_apes — plot.boot_apes • APES
…
list_result = apes(model = model, n_boot = 20)

plot(list_result, type = "vip_tile")

#> $apes_mle_beta_binary_plotdf
#> # A tibble: 110 x 5
#>    variables model_name    freq_selected model_size freq_selected_category
#>    <fct>     <fct>                 <dbl>      <int> <fct>                 
#>  1 intercept apes_model_2              1          2 (0.8,1]               
#>  2 intercept apes_model_3              1          3 (0.8,1]               
#>  3 intercept apes_model_4              1          4 (0.8,1]               
#>  4 intercept apes_model_5              1          5 (0.8,1]               
#>  5 intercept apes_model_6              1          6 (0.8,1]               
#>  6 intercept apes_model_7              1          7 (0.8,1]               
#>  7 intercept apes_model_8              1          8 (0.8,1]               
#>  8 intercept apes_model_9              1          9 (0.8,1]               
#>  9 intercept apes_model_10             1         10 (0.8,1]               
#> 10 intercept apes_model_11             1         11 (0.8,1]               
#> # … with 100 more rows
…
#> 
plot(list_result, type = "vip")

#> $boot_vars_plotdf
#> # A tibble: 1,023 x 3
#>    penalty variables boot_select_prob
#>      <dbl> <chr>                <dbl>
#>  1       0 intercept                1
#>  2       0 X1                       1
#>  3       0 X2                       1
#>  4       0 X3                       1
#>  5       0 X4                       1
#>  6       0 X5                       1
#>  7       0 X6                       1
#>  8       0 X7                       1
#>  9       0 X8                       1
#> 10       0 X9                       1
#> # … with 1,013 more rows
…
