birth weight example • APES
…
listResult = APES::boot_apes_logit(
  x = x,
  y = y,
  Pi = fullModel$fitted.values,
  k = 1:ncol(x), 
  estimator = "leaps",
  nBoot = 100)

Plotting

APES::viPlot_apes(listResult)

## $bootVarPlotdf
## # A tibble: 1,155 x 3
##    penalty variables bootSelectProb
##      <dbl> <chr>              <dbl>
##  1       0 Int                 1   
##  2       0 age                 0.94
##  3       0 lwt                 1   
##  4       0 raceother           0.93
##  5       0 racewhite           0.99
##  6       0 smokeTRUE           0.95
##  7       0 ptdTRUE             1   
##  8       0 htTRUE              0.99
##  9       0 uiTRUE              0.93
## 10       0 ftv1                0.87
## # ... with 1,145 more rows
## 
## $viPlot
…
APES::viTilePlot_apes(listResult)

## $apesMleBetaBinaryPlotdf
## # A tibble: 110 x 5
##    variables modelName    freqSelected modelSize freqSelected_category
##    <fct>     <fct>               <dbl>     <int> <fct>                
##  1 Int       apesModel_2             1         2 (0.8,1]              
##  2 Int       apesModel_3             1         3 (0.8,1]              
##  3 Int       apesModel_4             1         4 (0.8,1]              
##  4 Int       apesModel_5             1         5 (0.8,1]              
##  5 Int       apesModel_6             1         6 (0.8,1]              
##  6 Int       apesModel_7             1         7 (0.8,1]              
##  7 Int       apesModel_8             1         8 (0.8,1]              
##  8 Int       apesModel_9             1         9 (0.8,1]              
##  9 Int       apesModel_10            1        10 (0.8,1]              
## 10 Int       apesModel_11            1        11 (0.8,1]              
## # ... with 100 more rows
## 
## $variableTilePlot
…
