Diabetes example • APES
…
viTilePlotResult = APES::viTilePlot_apes(listResult)
viTilePlotResult

## $apesMleBetaBinaryPlotdf
## # A tibble: 132 x 5
##    variables modelName    freqSelected modelSize freqSelected_category
##    <fct>     <fct>               <dbl>     <int> <fct>                
##  1 Int       apesModel_2             1         2 (0.8,1]              
##  2 Int       apesModel_3             1         3 (0.8,1]              
##  3 Int       apesModel_4             1         4 (0.8,1]              
##  4 Int       apesModel_5             1         5 (0.8,1]              
##  5 Int       apesModel_6             1         6 (0.8,1]              
##  6 Int       apesModel_7             1         7 (0.8,1]              
##  7 Int       apesModel_8             1         8 (0.8,1]              
##  8 Int       apesModel_9             1         9 (0.8,1]              
##  9 Int       apesModel_10            1        10 (0.8,1]              
## 10 Int       apesModel_11            1        11 (0.8,1]              
## # ... with 122 more rows
## 
## $variableTilePlot
…
