Birthweight data example • APES
…
Tile version of VIP plot

This plot is identical in construction as the VIP plot above. However, the probability of selection is used as colours in a tile plot. The most stably selected variables are on the top of the y-axis.

plot(boot_result, type = "vip_tile")

## $apes_mle_beta_binary_plotdf
## # A tibble: 110 x 5
##    variables model_name    freq_selected model_size freq_selected_category
##    <fct>     <fct>                 <dbl>      <int> <fct>                 
##  1 intercept apes_model_2              1          2 (0.8,1]               
##  2 intercept apes_model_3              1          3 (0.8,1]               
##  3 intercept apes_model_4              1          4 (0.8,1]               
##  4 intercept apes_model_5              1          5 (0.8,1]               
##  5 intercept apes_model_6              1          6 (0.8,1]               
##  6 intercept apes_model_7              1          7 (0.8,1]               
##  7 intercept apes_model_8              1          8 (0.8,1]               
##  8 intercept apes_model_9              1          9 (0.8,1]               
##  9 intercept apes_model_10             1         10 (0.8,1]               
## 10 intercept apes_model_11             1         11 (0.8,1]               
## # … with 100 more rows
## 
## $var_tile_plot
…
